[
    [
        "A",
        "C",
        [
            "b"
        ]
    ],
    [
        "B",
        "A",
        [
            "a"
        ]
    ],
    [
        "B",
        "J",
        [
            "n"
        ]
    ],
    [
        "C",
        "B",
        [
            "c"
        ]
    ],
    [
        "C",
        "E",
        [
            "e"
        ]
    ],
    [
        "D",
        "C",
        [
            "d"
        ]
    ],
    [
        "D",
        "F",
        [
            "g"
        ]
    ],
    [
        "E",
        "D",
        [
            "f"
        ]
    ],
    [
        "E",
        "G",
        [
            "h"
        ]
    ],
    [
        "E",
        "J",
        [
            "o"
        ]
    ],
    [
        "F",
        "G",
        [
            "i"
        ]
    ],
    [
        "G",
        "H",
        [
            "k"
        ]
    ],
    [
        "G",
        "I",
        [
            "l"
        ]
    ],
    [
        "H",
        "F",
        [
            "j"
        ]
    ],
    [
        "I",
        "H",
        [
            "m"
        ]
    ],
    [
        "I",
        "L",
        [
            "w"
        ]
    ],
    [
        "J",
        "M",
        [
            "p"
        ]
    ],
    [
        "J",
        "O",
        [
            "q"
        ]
    ],
    [
        "K",
        "L",
        [
            "x"
        ]
    ],
    [
        "L",
        "K",
        [
            "y"
        ]
    ],
    [
        "L",
        "P",
        [
            "z"
        ]
    ],
    [
        "M",
        "N",
        [
            "r"
        ]
    ],
    [
        "N",
        "O",
        [
            "t"
        ]
    ],
    [
        "N",
        "P",
        [
            "u"
        ]
    ],
    [
        "O",
        "M",
        [
            "s"
        ]
    ],
    [
        "O",
        "P",
        [
            "v"
        ]
    ]
]
