{
    "$schema": "http://json-schema.org/draft-04/schema",
    "type": "object",
    "name": "grammar_3",
    "properties": {
        "name1": {
            "type": "integer"
        },
        "name2": {
            "anyOf": [
                {"type": "string"},
                {"type": "integer"}
            ]
        }
    },
    "required":  ["name1"],
    "additionalProperties": false
}
